Elastic net with tidymodels
…
! Fold2: internal: A correlation computation is required, but `estimate` is constant and ha...

! Fold3: internal: A correlation computation is required, but `estimate` is constant and ha...

! Fold4: internal: A correlation computation is required, but `estimate` is constant and ha...

! Fold5: internal: A correlation computation is required, but `estimate` is constant and ha...

results_penalised %>%
  collect_metrics() %>% 
  filter(.metric == "rmse") %>% 
  arrange(mean)

# A tibble: 66 × 8
   penalty mixture .metric .estimator  mean     n std_err .config              
     <dbl>   <dbl> <chr>   <chr>      <dbl> <int>   <dbl> <chr>                
 1       0     0   rmse    standard    2.73     5   0.309 Preprocessor1_Model01
 2       0     1   rmse    standard    2.77     5   0.361 Preprocessor1_Model56
 3       0     0.8 rmse    standard    2.77     5   0.360 Preprocessor1_Model45
 4       0     0.6 rmse    standard    2.77     5   0.358 Preprocessor1_Model34
 5       0     0.2 rmse    standard    2.77     5   0.356 Preprocessor1_Model12
 6       0     0.4 rmse    standard    2.78     5   0.357 Preprocessor1_Model23
 7      10     0   rmse    standard    3.18     5   0.659 Preprocessor1_Model02
 8      20     0   rmse    standard    3.74     5   0.764 Preprocessor1_Model03
 9      10     0.2 rmse    standard    3.93     5   0.792 Preprocessor1_Model13
10      30     0   rmse    standard    4.11     5   0.803 Preprocessor1_Model04
# … with 56 more rows
…
! Fold2: internal: A correlation computation is required, but `estimate` is constant and ha...

! Fold3: internal: A correlation computation is required, but `estimate` is constant and ha...

! Fold4: internal: A correlation computation is required, but `estimate` is constant and ha...

! Fold5: internal: A correlation computation is required, but `estimate` is constant and ha...

results_penalised_2 %>% 
  collect_metrics() %>% 
  filter(.metric == "rmse") %>% 
  arrange(mean)

# A tibble: 66 × 8
   penalty mixture .metric .estimator  mean     n std_err .config              
     <dbl>   <dbl> <chr>   <chr>      <dbl> <int>   <dbl> <chr>                
 1       0     0   rmse    standard    2.68     5   0.354 Preprocessor1_Model01
 2       0     0.6 rmse    standard    2.69     5   0.393 Preprocessor1_Model34
 3       0     0.4 rmse    standard    2.69     5   0.393 Preprocessor1_Model23
 4       0     0.2 rmse    standard    2.69     5   0.393 Preprocessor1_Model12
 5       0     0.8 rmse    standard    2.69     5   0.393 Preprocessor1_Model45
 6       0     1   rmse    standard    2.69     5   0.393 Preprocessor1_Model56
 7      10     0   rmse    standard    3.35     5   0.464 Preprocessor1_Model02
 8      20     0   rmse    standard    4.02     5   0.491 Preprocessor1_Model03
 9      10     0.2 rmse    standard    4.24     5   0.515 Preprocessor1_Model13
10      30     0   rmse    standard    4.45     5   0.501 Preprocessor1_Model04
# … with 56 more rows
…
